Merging and interpolation of observations
…
df_triple_clean <- df %>% 
  filter(n > 2) %>% 
  slice(1)

df <- full_join(df_no_triple, df_triple_clean)

rm(list=setdiff(ls(), "df"))

# find duplicated time stamps and shift first by one second, and merge

df %>% 
  distinct(date_time)

# A tibble: 603,770 x 1
   date_time          
   <dttm>             
 1 2018-06-16 03:58:45
 2 2018-06-16 03:59:00
 3 2018-06-16 03:59:15
 4 2018-06-16 03:59:30
 5 2018-06-16 03:59:45
 6 2018-06-16 04:00:00
 7 2018-06-16 04:00:15
 8 2018-06-16 04:00:30
 9 2018-06-16 04:00:45
10 2018-06-16 04:01:00
# ... with 603,760 more rows
…
df_duplicated_second <- df_duplicated %>% 
  group_by(date_time) %>% 
  slice(2) %>% 
  ungroup()

df_duplicated_clean <- full_join(df_duplicated_first, df_duplicated_second) %>% 
  arrange(date_time)

df <- full_join(df_no_duplicated, df_duplicated_clean)

df %>% 
  distinct(date_time)

# A tibble: 607,747 x 1
   date_time          
   <dttm>             
 1 2018-06-16 03:58:45
 2 2018-06-16 03:59:00
 3 2018-06-16 03:59:15
 4 2018-06-16 03:59:30
 5 2018-06-16 03:59:45
 6 2018-06-16 04:00:00
 7 2018-06-16 04:00:15
 8 2018-06-16 04:00:30
 9 2018-06-16 04:00:45
10 2018-06-16 04:01:00
# ... with 607,737 more rows
…
df_still_duplicated_first <- df %>% 
  select(-n) %>% 
  add_count(date_time) %>% 
  filter(n == 2) %>% 
  group_by(date_time) %>% 
  slice(1)

df <- full_join(df_still_no_duplicated, df_still_duplicated_first)

df %>% 
  distinct(date_time)

# A tibble: 607,747 x 1
   date_time          
   <dttm>             
 1 2018-06-16 03:58:45
 2 2018-06-16 03:59:00
 3 2018-06-16 03:59:15
 4 2018-06-16 03:59:30
 5 2018-06-16 03:59:45
 6 2018-06-16 04:00:00
 7 2018-06-16 04:00:15
 8 2018-06-16 04:00:30
 9 2018-06-16 04:00:45
10 2018-06-16 04:01:00
# ... with 607,737 more rows
…
